1536291333028	geckodriver	INFO	geckodriver 0.21.0
1536291333040	geckodriver	INFO	Listening on 127.0.0.1:57983
1536291334043	mozrunner::runner	INFO	Running command: "/Applications/Firefox.app/Contents/MacOS/firefox-bin" "-marionette" "-foreground" "-no-remote" "-profile" "/var/folders/wc/grjkqsgx7qx8f2g9tgnlg2w40000gn/T/rust_mozprofile.9hWARiC5Oe0d"
2018-09-06 21:35:35.641 plugin-container[21351:580926] *** CFMessagePort: bootstrap_register(): failed 1100 (0x44c) 'Permission denied', port = 0x703f, name = 'com.apple.tsm.portname'
See /usr/include/servers/bootstrap_defs.h for the error codes.
2018-09-06 21:35:36.064 plugin-container[21352:580959] *** CFMessagePort: bootstrap_register(): failed 1100 (0x44c) 'Permission denied', port = 0x7b47, name = 'com.apple.tsm.portname'
See /usr/include/servers/bootstrap_defs.h for the error codes.
2018-09-06 21:35:36.199 plugin-container[21351:580926] *** CFMessagePort: bootstrap_register(): failed 1100 (0x44c) 'Permission denied', port = 0x70b7, name = 'com.apple.coredrag'
See /usr/include/servers/bootstrap_defs.h for the error codes.
2018-09-06 21:35:36.200 plugin-container[21352:580959] *** CFMessagePort: bootstrap_register(): failed 1100 (0x44c) 'Permission denied', port = 0x7b63, name = 'com.apple.coredrag'
See /usr/include/servers/bootstrap_defs.h for the error codes.
1536291336477	Marionette	INFO	Listening on port 57999
1536291336559	Marionette	WARN	TLS certificate errors will be ignored for this session
2018-09-06 21:35:36.890 plugin-container[21353:581071] *** CFMessagePort: bootstrap_register(): failed 1100 (0x44c) 'Permission denied', port = 0x7943, name = 'com.apple.tsm.portname'
See /usr/include/servers/bootstrap_defs.h for the error codes.
2018-09-06 21:35:36.997 plugin-container[21353:581071] *** CFMessagePort: bootstrap_register(): failed 1100 (0x44c) 'Permission denied', port = 0x8ba3, name = 'com.apple.coredrag'
See /usr/include/servers/bootstrap_defs.h for the error codes.
*** UTM:SVC TimerManager:registerTimer called after profile-before-change notification. Ignoring timer registration for id: telemetry_modules_ping
1536291347334	geckodriver	INFO	geckodriver 0.21.0
1536291347353	geckodriver	INFO	Listening on 127.0.0.1:58098
1536291348375	mozrunner::runner	INFO	Running command: "/Applications/Firefox.app/Contents/MacOS/firefox-bin" "-marionette" "-foreground" "-no-remote" "-profile" "/var/folders/wc/grjkqsgx7qx8f2g9tgnlg2w40000gn/T/rust_mozprofile.Q7p2C7fnkjrN"
2018-09-06 21:35:49.587 plugin-container[21361:581414] *** CFMessagePort: bootstrap_register(): failed 1100 (0x44c) 'Permission denied', port = 0x813b, name = 'com.apple.tsm.portname'
See /usr/include/servers/bootstrap_defs.h for the error codes.
2018-09-06 21:35:49.724 plugin-container[21361:581414] *** CFMessagePort: bootstrap_register(): failed 1100 (0x44c) 'Permission denied', port = 0x8177, name = 'com.apple.coredrag'
See /usr/include/servers/bootstrap_defs.h for the error codes.
2018-09-06 21:35:49.893 plugin-container[21363:581440] *** CFMessagePort: bootstrap_register(): failed 1100 (0x44c) 'Permission denied', port = 0x773b, name = 'com.apple.tsm.portname'
See /usr/include/servers/bootstrap_defs.h for the error codes.
2018-09-06 21:35:50.016 plugin-container[21363:581440] *** CFMessagePort: bootstrap_register(): failed 1100 (0x44c) 'Permission denied', port = 0x7797, name = 'com.apple.coredrag'
See /usr/include/servers/bootstrap_defs.h for the error codes.
1536291350276	Marionette	INFO	Listening on port 58114
1536291350339	Marionette	WARN	TLS certificate errors will be ignored for this session
2018-09-06 21:35:50.597 plugin-container[21364:581562] *** CFMessagePort: bootstrap_register(): failed 1100 (0x44c) 'Permission denied', port = 0x7a43, name = 'com.apple.tsm.portname'
See /usr/include/servers/bootstrap_defs.h for the error codes.
2018-09-06 21:35:50.694 plugin-container[21364:581562] *** CFMessagePort: bootstrap_register(): failed 1100 (0x44c) 'Permission denied', port = 0x7a23, name = 'com.apple.coredrag'
See /usr/include/servers/bootstrap_defs.h for the error codes.
*** UTM:SVC TimerManager:registerTimer called after profile-before-change notification. Ignoring timer registration for id: telemetry_modules_ping
1536291357635	geckodriver	INFO	geckodriver 0.21.0
1536291357652	geckodriver	INFO	Listening on 127.0.0.1:58191
1536291358671	mozrunner::runner	INFO	Running command: "/Applications/Firefox.app/Contents/MacOS/firefox-bin" "-marionette" "-foreground" "-no-remote" "-profile" "/var/folders/wc/grjkqsgx7qx8f2g9tgnlg2w40000gn/T/rust_mozprofile.Q7V4LXRXQDH1"
2018-09-06 21:35:59.930 plugin-container[21392:581936] *** CFMessagePort: bootstrap_register(): failed 1100 (0x44c) 'Permission denied', port = 0x7837, name = 'com.apple.tsm.portname'
See /usr/include/servers/bootstrap_defs.h for the error codes.
2018-09-06 21:36:00.061 plugin-container[21392:581936] *** CFMessagePort: bootstrap_register(): failed 1100 (0x44c) 'Permission denied', port = 0x7727, name = 'com.apple.coredrag'
See /usr/include/servers/bootstrap_defs.h for the error codes.
2018-09-06 21:36:00.229 plugin-container[21393:581960] *** CFMessagePort: bootstrap_register(): failed 1100 (0x44c) 'Permission denied', port = 0x793b, name = 'com.apple.tsm.portname'
See /usr/include/servers/bootstrap_defs.h for the error codes.
2018-09-06 21:36:00.337 plugin-container[21393:581960] *** CFMessagePort: bootstrap_register(): failed 1100 (0x44c) 'Permission denied', port = 0x79b7, name = 'com.apple.coredrag'
See /usr/include/servers/bootstrap_defs.h for the error codes.
1536291360440	Marionette	INFO	Listening on port 58202
1536291360524	Marionette	WARN	TLS certificate errors will be ignored for this session
2018-09-06 21:36:00.913 plugin-container[21394:582071] *** CFMessagePort: bootstrap_register(): failed 1100 (0x44c) 'Permission denied', port = 0x8843, name = 'com.apple.tsm.portname'
See /usr/include/servers/bootstrap_defs.h for the error codes.
2018-09-06 21:36:01.042 plugin-container[21394:582071] *** CFMessagePort: bootstrap_register(): failed 1100 (0x44c) 'Permission denied', port = 0x8713, name = 'com.apple.coredrag'
See /usr/include/servers/bootstrap_defs.h for the error codes.
*** UTM:SVC TimerManager:registerTimer called after profile-before-change notification. Ignoring timer registration for id: telemetry_modules_ping
